[
  {
    "DifficultyLevel": "Medium",
    "FirstClickIsSafe": true,
    "ClickNumberOpensAdjacentCells": true,
    "ClickOnMineStartsDefuseCountdown": false,
    "AllMinesFlaggedOpensRemainingCells": false,
    "PercentageOfCorrectlyOpenedCells": 0.51953125,
    "EndTime": "2024-05-12T23:17:38.2896725+03:00",
    "Result": "Lost",
    "ClicksMade": 8,
    "GameTime": 54.2000000000005
  },
  {
    "DifficultyLevel": "Easy",
    "FirstClickIsSafe": true,
    "ClickNumberOpensAdjacentCells": true,
    "ClickOnMineStartsDefuseCountdown": false,
    "AllMinesFlaggedOpensRemainingCells": false,
    "PercentageOfCorrectlyOpenedCells": 0.5802469135802469,
    "EndTime": "2024-05-12T23:21:16.1888148+03:00",
    "Result": "Lost",
    "ClicksMade": 2,
    "GameTime": 19.400000000000006
  },
  {
    "DifficultyLevel": "Easy",
    "FirstClickIsSafe": true,
    "ClickNumberOpensAdjacentCells": true,
    "ClickOnMineStartsDefuseCountdown": false,
    "AllMinesFlaggedOpensRemainingCells": false,
    "PercentageOfCorrectlyOpenedCells": 0.6666666666666666,
    "EndTime": "2024-05-12T23:21:52.3347412+03:00",
    "Result": "Lost",
    "ClicksMade": 2,
    "GameTime": 8.199999999999987
  },
  {
    "DifficultyLevel": "Easy",
    "FirstClickIsSafe": true,
    "ClickNumberOpensAdjacentCells": true,
    "ClickOnMineStartsDefuseCountdown": false,
    "AllMinesFlaggedOpensRemainingCells": false,
    "PercentageOfCorrectlyOpenedCells": 1,
    "EndTime": "2024-05-12T23:23:33.7328267+03:00",
    "Result": "Won",
    "ClicksMade": 12,
    "GameTime": 77.19999999999989
  },
  {
    "DifficultyLevel": "Easy",
    "FirstClickIsSafe": true,
    "ClickNumberOpensAdjacentCells": true,
    "ClickOnMineStartsDefuseCountdown": false,
    "AllMinesFlaggedOpensRemainingCells": false,
    "PercentageOfCorrectlyOpenedCells": 0.8765432098765432,
    "EndTime": "2024-05-12T23:24:06.6909516+03:00",
    "Result": "Lost",
    "ClicksMade": 14,
    "GameTime": 77.19999999999989
  },
  {
    "DifficultyLevel": "Hard",
    "FirstClickIsSafe": true,
    "ClickNumberOpensAdjacentCells": true,
    "ClickOnMineStartsDefuseCountdown": false,
    "AllMinesFlaggedOpensRemainingCells": false,
    "PercentageOfCorrectlyOpenedCells": 0.0625,
    "EndTime": "2024-05-13T03:24:19.2344996+03:00",
    "Result": "Lost",
    "ClicksMade": 2,
    "GameTime": 1.6000000000000003
  },
  {
    "DifficultyLevel": "Easy",
    "FirstClickIsSafe": true,
    "ClickNumberOpensAdjacentCells": true,
    "ClickOnMineStartsDefuseCountdown": false,
    "AllMinesFlaggedOpensRemainingCells": true,
    "PercentageOfCorrectlyOpenedCells": 0.9753086419753086,
    "EndTime": "2024-05-13T16:35:27.6020236+03:00",
    "Result": "Won",
    "ClicksMade": 16,
    "GameTime": 26.300000000000104
  },
  {
    "DifficultyLevel": "Easy",
    "FirstClickIsSafe": true,
    "ClickNumberOpensAdjacentCells": true,
    "ClickOnMineStartsDefuseCountdown": false,
    "AllMinesFlaggedOpensRemainingCells": true,
    "PercentageOfCorrectlyOpenedCells": 0.8765432098765432,
    "EndTime": "2024-05-13T16:36:14.1899536+03:00",
    "Result": "Lost",
    "ClicksMade": 18,
    "GameTime": 26.300000000000104
  },
  {
    "DifficultyLevel": "Hard",
    "FirstClickIsSafe": true,
    "ClickNumberOpensAdjacentCells": true,
    "ClickOnMineStartsDefuseCountdown": false,
    "AllMinesFlaggedOpensRemainingCells": false,
    "PercentageOfCorrectlyOpenedCells": 0.20416666666666666,
    "EndTime": "2024-05-13T17:01:52.9295175+03:00",
    "Result": "Lost",
    "ClicksMade": 2,
    "GameTime": 8.099999999999987
  },
  {
    "DifficultyLevel": "Easy",
    "FirstClickIsSafe": true,
    "ClickNumberOpensAdjacentCells": true,
    "ClickOnMineStartsDefuseCountdown": false,
    "AllMinesFlaggedOpensRemainingCells": true,
    "PercentageOfCorrectlyOpenedCells": 0.5185185185185185,
    "EndTime": "2024-05-13T17:03:27.1109667+03:00",
    "Result": "Lost",
    "ClicksMade": 2,
    "GameTime": 6.199999999999994
  },
  {
    "DifficultyLevel": "Easy",
    "FirstClickIsSafe": true,
    "ClickNumberOpensAdjacentCells": true,
    "ClickOnMineStartsDefuseCountdown": false,
    "AllMinesFlaggedOpensRemainingCells": true,
    "PercentageOfCorrectlyOpenedCells": 0.7160493827160493,
    "EndTime": "2024-05-13T17:03:34.9597386+03:00",
    "Result": "Lost",
    "ClicksMade": 2,
    "GameTime": 5.4999999999999964
  },
  {
    "DifficultyLevel": "Easy",
    "FirstClickIsSafe": true,
    "ClickNumberOpensAdjacentCells": true,
    "ClickOnMineStartsDefuseCountdown": false,
    "AllMinesFlaggedOpensRemainingCells": true,
    "PercentageOfCorrectlyOpenedCells": 1,
    "EndTime": "2024-05-13T17:04:21.9652666+03:00",
    "Result": "Won",
    "ClicksMade": 10,
    "GameTime": 40.500000000000306
  },
  {
    "DifficultyLevel": "Easy",
    "FirstClickIsSafe": true,
    "ClickNumberOpensAdjacentCells": true,
    "ClickOnMineStartsDefuseCountdown": false,
    "AllMinesFlaggedOpensRemainingCells": true,
    "PercentageOfCorrectlyOpenedCells": 0.8765432098765432,
    "EndTime": "2024-05-13T17:17:01.4120601+03:00",
    "Result": "Lost",
    "ClicksMade": 1,
    "GameTime": 28.10000000000013
  },
  {
    "DifficultyLevel": "Easy",
    "FirstClickIsSafe": true,
    "ClickNumberOpensAdjacentCells": true,
    "ClickOnMineStartsDefuseCountdown": false,
    "AllMinesFlaggedOpensRemainingCells": true,
    "PercentageOfCorrectlyOpenedCells": 0.8765432098765432,
    "EndTime": "2024-05-13T17:22:07.3392808+03:00",
    "Result": "Lost",
    "ClicksMade": 0,
    "GameTime": 7.39999999999999
  },
  {
    "DifficultyLevel": "Easy",
    "FirstClickIsSafe": true,
    "ClickNumberOpensAdjacentCells": true,
    "ClickOnMineStartsDefuseCountdown": false,
    "AllMinesFlaggedOpensRemainingCells": true,
    "PercentageOfCorrectlyOpenedCells": 0.8765432098765432,
    "EndTime": "2024-05-13T17:39:27.9940259+03:00",
    "Result": "Lost",
    "ClicksMade": 0,
    "GameTime": 7.699999999999989
  },
  {
    "DifficultyLevel": "Easy",
    "FirstClickIsSafe": true,
    "ClickNumberOpensAdjacentCells": true,
    "ClickOnMineStartsDefuseCountdown": false,
    "AllMinesFlaggedOpensRemainingCells": true,
    "PercentageOfCorrectlyOpenedCells": 0.5679012345679012,
    "EndTime": "2024-05-13T18:38:28.2829712+03:00",
    "Result": "Lost",
    "ClicksMade": 3,
    "GameTime": 1.8000000000000005
  },
  {
    "DifficultyLevel": "Easy",
    "FirstClickIsSafe": true,
    "ClickNumberOpensAdjacentCells": true,
    "ClickOnMineStartsDefuseCountdown": false,
    "AllMinesFlaggedOpensRemainingCells": true,
    "PercentageOfCorrectlyOpenedCells": 0.8765432098765432,
    "EndTime": "2024-05-13T18:57:47.3442293+03:00",
    "Result": "Lost",
    "ClicksMade": 1,
    "GameTime": 10.599999999999978
  },
  {
    "DifficultyLevel": "Easy",
    "FirstClickIsSafe": true,
    "ClickNumberOpensAdjacentCells": true,
    "ClickOnMineStartsDefuseCountdown": false,
    "AllMinesFlaggedOpensRemainingCells": true,
    "PercentageOfCorrectlyOpenedCells": 0.8765432098765432,
    "EndTime": "2024-05-13T19:05:46.4886663+03:00",
    "Result": "Lost",
    "ClicksMade": 0,
    "GameTime": 5.999999999999995
  },
  {
    "DifficultyLevel": "Easy",
    "FirstClickIsSafe": true,
    "ClickNumberOpensAdjacentCells": true,
    "ClickOnMineStartsDefuseCountdown": false,
    "AllMinesFlaggedOpensRemainingCells": true,
    "PercentageOfCorrectlyOpenedCells": 1,
    "EndTime": "2024-05-13T19:15:41.6413331+03:00",
    "Result": "Won",
    "ClicksMade": 18,
    "GameTime": 49.50000000000043
  },
  {
    "DifficultyLevel": "Easy",
    "FirstClickIsSafe": true,
    "ClickNumberOpensAdjacentCells": true,
    "ClickOnMineStartsDefuseCountdown": false,
    "AllMinesFlaggedOpensRemainingCells": true,
    "PercentageOfCorrectlyOpenedCells": 1,
    "EndTime": "2024-05-13T19:18:11.9439503+03:00",
    "Result": "Won",
    "ClicksMade": 7,
    "GameTime": 24.00000000000007
  },
  {
    "DifficultyLevel": "Easy",
    "FirstClickIsSafe": true,
    "ClickNumberOpensAdjacentCells": true,
    "ClickOnMineStartsDefuseCountdown": false,
    "AllMinesFlaggedOpensRemainingCells": true,
    "PercentageOfCorrectlyOpenedCells": 0.9876543209876543,
    "EndTime": "2024-05-13T19:20:22.1304451+03:00",
    "Result": "Won",
    "ClicksMade": 8,
    "GameTime": 20.200000000000017
  },
  {
    "DifficultyLevel": "Easy",
    "FirstClickIsSafe": true,
    "ClickNumberOpensAdjacentCells": true,
    "ClickOnMineStartsDefuseCountdown": false,
    "AllMinesFlaggedOpensRemainingCells": true,
    "PercentageOfCorrectlyOpenedCells": 0.8765432098765432,
    "EndTime": "2024-05-13T19:20:22.1723045+03:00",
    "Result": "Lost",
    "ClicksMade": 8,
    "GameTime": 20.200000000000017
  },
  {
    "DifficultyLevel": "Easy",
    "FirstClickIsSafe": true,
    "ClickNumberOpensAdjacentCells": true,
    "ClickOnMineStartsDefuseCountdown": false,
    "AllMinesFlaggedOpensRemainingCells": true,
    "PercentageOfCorrectlyOpenedCells": 0.8024691358024691,
    "EndTime": "2024-05-13T20:33:34.0732911+03:00",
    "Result": "Lost",
    "ClicksMade": 28,
    "GameTime": 42.70000000000034
  },
  {
    "DifficultyLevel": "Easy",
    "FirstClickIsSafe": true,
    "ClickNumberOpensAdjacentCells": true,
    "ClickOnMineStartsDefuseCountdown": false,
    "AllMinesFlaggedOpensRemainingCells": true,
    "PercentageOfCorrectlyOpenedCells": 0.5185185185185185,
    "EndTime": "2024-05-13T20:59:36.423341+03:00",
    "Result": "Lost",
    "ClicksMade": 2,
    "GameTime": 38.300000000000274
  },
  {
    "DifficultyLevel": "Easy",
    "FirstClickIsSafe": true,
    "ClickNumberOpensAdjacentCells": true,
    "ClickOnMineStartsDefuseCountdown": false,
    "AllMinesFlaggedOpensRemainingCells": true,
    "PercentageOfCorrectlyOpenedCells": 0.5802469135802469,
    "EndTime": "2024-05-13T21:02:09.3021169+03:00",
    "Result": "Lost",
    "ClicksMade": 2,
    "GameTime": 11.099999999999977
  },
  {
    "DifficultyLevel": "Easy",
    "FirstClickIsSafe": true,
    "ClickNumberOpensAdjacentCells": true,
    "ClickOnMineStartsDefuseCountdown": false,
    "AllMinesFlaggedOpensRemainingCells": true,
    "PercentageOfCorrectlyOpenedCells": 0.7283950617283951,
    "EndTime": "2024-05-13T21:04:30.3535292+03:00",
    "Result": "Lost",
    "ClicksMade": 2,
    "GameTime": 6.5999999999999925
  },
  {
    "DifficultyLevel": "Medium",
    "FirstClickIsSafe": true,
    "ClickNumberOpensAdjacentCells": true,
    "ClickOnMineStartsDefuseCountdown": false,
    "AllMinesFlaggedOpensRemainingCells": true,
    "PercentageOfCorrectlyOpenedCells": 0.40625,
    "EndTime": "2024-05-13T21:50:29.5887446+03:00",
    "Result": "Lost",
    "ClicksMade": 3,
    "GameTime": 43.80000000000035
  },
  {
    "DifficultyLevel": "Easy",
    "FirstClickIsSafe": true,
    "ClickNumberOpensAdjacentCells": true,
    "ClickOnMineStartsDefuseCountdown": false,
    "AllMinesFlaggedOpensRemainingCells": true,
    "PercentageOfCorrectlyOpenedCells": 0.9629629629629629,
    "EndTime": "2024-05-13T21:57:19.3108304+03:00",
    "Result": "Won",
    "ClicksMade": 9,
    "GameTime": 27.200000000000117
  },
  {
    "DifficultyLevel": "Easy",
    "FirstClickIsSafe": true,
    "ClickNumberOpensAdjacentCells": true,
    "ClickOnMineStartsDefuseCountdown": false,
    "AllMinesFlaggedOpensRemainingCells": true,
    "PercentageOfCorrectlyOpenedCells": 1,
    "EndTime": "2024-05-13T21:58:28.3398568+03:00",
    "Result": "Won",
    "ClicksMade": 24,
    "GameTime": 34.70000000000022
  },
  {
    "DifficultyLevel": "Easy",
    "FirstClickIsSafe": true,
    "ClickNumberOpensAdjacentCells": true,
    "ClickOnMineStartsDefuseCountdown": false,
    "AllMinesFlaggedOpensRemainingCells": true,
    "PercentageOfCorrectlyOpenedCells": 1,
    "EndTime": "2024-05-13T22:03:12.4572828+03:00",
    "Result": "Won",
    "ClicksMade": 28,
    "GameTime": 72.30000000000017
  },
  {
    "DifficultyLevel": "Easy",
    "FirstClickIsSafe": true,
    "ClickNumberOpensAdjacentCells": true,
    "ClickOnMineStartsDefuseCountdown": false,
    "AllMinesFlaggedOpensRemainingCells": true,
    "PercentageOfCorrectlyOpenedCells": 1,
    "EndTime": "2024-05-13T23:55:53.9461493+03:00",
    "Result": "Won",
    "ClicksMade": 23,
    "GameTime": 46.9000000000004
  },
  {
    "DifficultyLevel": "Medium",
    "FirstClickIsSafe": true,
    "ClickNumberOpensAdjacentCells": true,
    "ClickOnMineStartsDefuseCountdown": false,
    "AllMinesFlaggedOpensRemainingCells": true,
    "PercentageOfCorrectlyOpenedCells": 0.07421875,
    "EndTime": "2024-05-13T23:57:24.0873799+03:00",
    "Result": "Lost",
    "ClicksMade": 4,
    "GameTime": 2.9000000000000012
  },
  {
    "DifficultyLevel": "Medium",
    "FirstClickIsSafe": true,
    "ClickNumberOpensAdjacentCells": true,
    "ClickOnMineStartsDefuseCountdown": false,
    "AllMinesFlaggedOpensRemainingCells": true,
    "PercentageOfCorrectlyOpenedCells": 0.84375,
    "EndTime": "2024-05-14T00:08:53.72433+03:00",
    "Result": "Lost",
    "ClicksMade": 6,
    "GameTime": 26.0000000000001
  },
  {
    "DifficultyLevel": "Easy",
    "FirstClickIsSafe": true,
    "ClickNumberOpensAdjacentCells": true,
    "ClickOnMineStartsDefuseCountdown": false,
    "AllMinesFlaggedOpensRemainingCells": true,
    "PercentageOfCorrectlyOpenedCells": 1,
    "EndTime": "2024-05-14T00:29:20.713589+03:00",
    "Result": "Won",
    "ClicksMade": 20,
    "GameTime": 17.099999999999973
  },
  {
    "DifficultyLevel": "Easy",
    "FirstClickIsSafe": true,
    "ClickNumberOpensAdjacentCells": true,
    "ClickOnMineStartsDefuseCountdown": false,
    "AllMinesFlaggedOpensRemainingCells": true,
    "PercentageOfCorrectlyOpenedCells": 0.8641975308641975,
    "EndTime": "2024-05-14T00:57:28.5472757+03:00",
    "Result": "Lost",
    "ClicksMade": 11,
    "GameTime": 72.20000000000017
  },
  {
    "DifficultyLevel": "Easy",
    "FirstClickIsSafe": true,
    "ClickNumberOpensAdjacentCells": true,
    "ClickOnMineStartsDefuseCountdown": false,
    "AllMinesFlaggedOpensRemainingCells": true,
    "PercentageOfCorrectlyOpenedCells": 1,
    "EndTime": "2024-05-14T01:11:16.9860149+03:00",
    "Result": "Won",
    "ClicksMade": 21,
    "GameTime": 88.79999999999923
  },
  {
    "DifficultyLevel": "Easy",
    "FirstClickIsSafe": true,
    "ClickNumberOpensAdjacentCells": true,
    "ClickOnMineStartsDefuseCountdown": false,
    "AllMinesFlaggedOpensRemainingCells": true,
    "PercentageOfCorrectlyOpenedCells": 0.5925925925925926,
    "EndTime": "2024-05-14T01:22:07.3777483+03:00",
    "Result": "Lost",
    "ClicksMade": 2,
    "GameTime": 0.7
  },
  {
    "DifficultyLevel": "Easy",
    "FirstClickIsSafe": true,
    "ClickNumberOpensAdjacentCells": true,
    "ClickOnMineStartsDefuseCountdown": false,
    "AllMinesFlaggedOpensRemainingCells": true,
    "PercentageOfCorrectlyOpenedCells": 0.8765432098765432,
    "EndTime": "2024-05-14T01:59:53.0429445+03:00",
    "Result": "Lost",
    "ClicksMade": 5,
    "GameTime": 12.099999999999973
  },
  {
    "DifficultyLevel": "Easy",
    "FirstClickIsSafe": true,
    "ClickNumberOpensAdjacentCells": true,
    "ClickOnMineStartsDefuseCountdown": false,
    "AllMinesFlaggedOpensRemainingCells": true,
    "PercentageOfCorrectlyOpenedCells": 0.8765432098765432,
    "EndTime": "2024-05-14T02:05:21.819863+03:00",
    "Result": "Lost",
    "ClicksMade": 5,
    "GameTime": 19.300000000000004
  },
  {
    "DifficultyLevel": "Easy",
    "FirstClickIsSafe": true,
    "ClickNumberOpensAdjacentCells": true,
    "ClickOnMineStartsDefuseCountdown": false,
    "AllMinesFlaggedOpensRemainingCells": true,
    "PercentageOfCorrectlyOpenedCells": 0.8765432098765432,
    "EndTime": "2024-05-14T02:07:00.8657785+03:00",
    "Result": "Lost",
    "ClicksMade": 1,
    "GameTime": 4.799999999999999
  },
  {
    "DifficultyLevel": "Easy",
    "FirstClickIsSafe": true,
    "ClickNumberOpensAdjacentCells": true,
    "ClickOnMineStartsDefuseCountdown": false,
    "AllMinesFlaggedOpensRemainingCells": true,
    "PercentageOfCorrectlyOpenedCells": 0.8765432098765432,
    "EndTime": "2024-05-14T02:07:39.7934016+03:00",
    "Result": "Lost",
    "ClicksMade": 1,
    "GameTime": 19.70000000000001
  },
  {
    "DifficultyLevel": "Easy",
    "FirstClickIsSafe": true,
    "ClickNumberOpensAdjacentCells": true,
    "ClickOnMineStartsDefuseCountdown": false,
    "AllMinesFlaggedOpensRemainingCells": true,
    "PercentageOfCorrectlyOpenedCells": 0.8765432098765432,
    "EndTime": "2024-05-14T02:08:19.4891229+03:00",
    "Result": "Lost",
    "ClicksMade": 1,
    "GameTime": 7.799999999999988
  },
  {
    "DifficultyLevel": "Easy",
    "FirstClickIsSafe": true,
    "ClickNumberOpensAdjacentCells": true,
    "ClickOnMineStartsDefuseCountdown": false,
    "AllMinesFlaggedOpensRemainingCells": true,
    "PercentageOfCorrectlyOpenedCells": 0.6419753086419753,
    "EndTime": "2024-05-14T02:11:17.2716047+03:00",
    "Result": "Lost",
    "ClicksMade": 5,
    "GameTime": 8.999999999999984
  },
  {
    "DifficultyLevel": "Easy",
    "FirstClickIsSafe": true,
    "ClickNumberOpensAdjacentCells": true,
    "ClickOnMineStartsDefuseCountdown": false,
    "AllMinesFlaggedOpensRemainingCells": true,
    "PercentageOfCorrectlyOpenedCells": 0.654320987654321,
    "EndTime": "2024-05-14T02:22:43.9570433+03:00",
    "Result": "Lost",
    "ClicksMade": 3,
    "GameTime": 27.800000000000125
  },
  {
    "DifficultyLevel": "Easy",
    "FirstClickIsSafe": true,
    "ClickNumberOpensAdjacentCells": true,
    "ClickOnMineStartsDefuseCountdown": false,
    "AllMinesFlaggedOpensRemainingCells": true,
    "PercentageOfCorrectlyOpenedCells": 0.8641975308641975,
    "EndTime": "2024-05-14T02:25:32.9861657+03:00",
    "Result": "Lost",
    "ClicksMade": 29,
    "GameTime": 69.00000000000036
  },
  {
    "DifficultyLevel": "Easy",
    "FirstClickIsSafe": true,
    "ClickNumberOpensAdjacentCells": true,
    "ClickOnMineStartsDefuseCountdown": false,
    "AllMinesFlaggedOpensRemainingCells": true,
    "PercentageOfCorrectlyOpenedCells": 0.8765432098765432,
    "EndTime": "2024-05-14T02:25:57.0500858+03:00",
    "Result": "Lost",
    "ClicksMade": 0,
    "GameTime": 0
  },
  {
    "DifficultyLevel": "Easy",
    "FirstClickIsSafe": true,
    "ClickNumberOpensAdjacentCells": true,
    "ClickOnMineStartsDefuseCountdown": false,
    "AllMinesFlaggedOpensRemainingCells": true,
    "PercentageOfCorrectlyOpenedCells": 0.654320987654321,
    "EndTime": "2024-05-14T02:45:24.6758841+03:00",
    "Result": "Lost",
    "ClicksMade": 6,
    "GameTime": 3.1000000000000014
  },
  {
    "DifficultyLevel": "Easy",
    "FirstClickIsSafe": true,
    "ClickNumberOpensAdjacentCells": true,
    "ClickOnMineStartsDefuseCountdown": false,
    "AllMinesFlaggedOpensRemainingCells": true,
    "PercentageOfCorrectlyOpenedCells": 0.7407407407407407,
    "EndTime": "2024-05-14T02:50:53.2313411+03:00",
    "Result": "Lost",
    "ClicksMade": 7,
    "GameTime": 6.399999999999993
  },
  {
    "DifficultyLevel": "Easy",
    "FirstClickIsSafe": true,
    "ClickNumberOpensAdjacentCells": true,
    "ClickOnMineStartsDefuseCountdown": false,
    "AllMinesFlaggedOpensRemainingCells": true,
    "PercentageOfCorrectlyOpenedCells": 0.8765432098765432,
    "EndTime": "2024-05-14T03:34:36.0893362+03:00",
    "Result": "Lost",
    "ClicksMade": 2,
    "GameTime": 5.599999999999996
  },
{
    "DifficultyLevel": "Hard",
    "FirstClickIsSafe": false,
    "ClickNumberOpensAdjacentCells": false,
    "ClickOnMineStartsDefuseCountdown": true,
    "AllMinesFlaggedOpensRemainingCells": false,
    "PercentageOfCorrectlyOpenedCells": 1,
    "EndTime": "2024-05-14T18:01:52.9295175+03:00",
    "Result": "Won",
    "ClicksMade": 200,
    "GameTime": 300.09999999999999
  },
  {
    "DifficultyLevel": "Medium",
    "FirstClickIsSafe": false,
    "ClickNumberOpensAdjacentCells": false,
    "ClickOnMineStartsDefuseCountdown": true,
    "AllMinesFlaggedOpensRemainingCells": true,
    "PercentageOfCorrectlyOpenedCells": 1,
    "EndTime": "2024-05-14T23:57:24.0873799+03:00",
    "Result": "Won",
    "ClicksMade": 145,
    "GameTime": 120.90000000000001
  },
  {
    "DifficultyLevel": "Easy",
    "FirstClickIsSafe": true,
    "ClickNumberOpensAdjacentCells": true,
    "ClickOnMineStartsDefuseCountdown": false,
    "AllMinesFlaggedOpensRemainingCells": true,
    "PercentageOfCorrectlyOpenedCells": 1,
    "EndTime": "2024-05-14T02:08:19.4891229+03:00",
    "Result": "Won",
    "ClicksMade": 15,
    "GameTime": 40.79999999999998
  },
  {
    "DifficultyLevel": "Hard",
    "FirstClickIsSafe": true,
    "ClickNumberOpensAdjacentCells": true,
    "ClickOnMineStartsDefuseCountdown": false,
    "AllMinesFlaggedOpensRemainingCells": false,
    "PercentageOfCorrectlyOpenedCells": 0.30416666666666664,
    "EndTime": "2024-05-14T17:01:52.9295175+03:00",
    "Result": "Lost",
    "ClicksMade": 100,
    "GameTime": 145.09999999999998
  },
  {
    "DifficultyLevel": "Medium",
    "FirstClickIsSafe": true,
    "ClickNumberOpensAdjacentCells": true,
    "ClickOnMineStartsDefuseCountdown": false,
    "AllMinesFlaggedOpensRemainingCells": true,
    "PercentageOfCorrectlyOpenedCells": 0.57421875,
    "EndTime": "2024-05-13T23:57:24.0873799+03:00",
    "Result": "Lost",
    "ClicksMade": 60,
    "GameTime": 160.90000000000001
  },
  {
    "DifficultyLevel": "Easy",
    "FirstClickIsSafe": true,
    "ClickNumberOpensAdjacentCells": true,
    "ClickOnMineStartsDefuseCountdown": false,
    "AllMinesFlaggedOpensRemainingCells": true,
    "PercentageOfCorrectlyOpenedCells": 0.6419753086419753,
    "EndTime": "2024-05-14T02:08:19.4891229+03:00",
    "Result": "Lost",
    "ClicksMade": 10,
    "GameTime": 20.79999999999998
  },
  {
    "DifficultyLevel": "Hard",
    "FirstClickIsSafe": false,
    "ClickNumberOpensAdjacentCells": false,
    "ClickOnMineStartsDefuseCountdown": true,
    "AllMinesFlaggedOpensRemainingCells": false,
    "PercentageOfCorrectlyOpenedCells": 1,
    "EndTime": "2024-05-14T18:01:52.9295175+03:00",
    "Result": "Won",
    "ClicksMade": 160,
    "GameTime": 140.09999999999997
  },
  {
    "DifficultyLevel": "Medium",
    "FirstClickIsSafe": false,
    "ClickNumberOpensAdjacentCells": false,
    "ClickOnMineStartsDefuseCountdown": true,
    "AllMinesFlaggedOpensRemainingCells": true,
    "PercentageOfCorrectlyOpenedCells": 1,
    "EndTime": "2024-05-14T23:57:24.0873799+03:00",
    "Result": "Won",
    "ClicksMade": 75,
    "GameTime": 100.90000000000001
  },
  {
    "DifficultyLevel": "Easy",
    "FirstClickIsSafe": true,
    "ClickNumberOpensAdjacentCells": true,
    "ClickOnMineStartsDefuseCountdown": false,
    "AllMinesFlaggedOpensRemainingCells": true,
    "PercentageOfCorrectlyOpenedCells": 1,
    "EndTime": "2024-05-14T02:08:19.4891229+03:00",
    "Result": "Won",
    "ClicksMade": 20,
    "GameTime": 60.79999999999998
  },
  {
    "DifficultyLevel": "Hard",
    "FirstClickIsSafe": true,
    "ClickNumberOpensAdjacentCells": true,
    "ClickOnMineStartsDefuseCountdown": false,
    "AllMinesFlaggedOpensRemainingCells": false,
    "PercentageOfCorrectlyOpenedCells": 0.70416666666666664,
    "EndTime": "2024-05-14T17:01:52.9295175+03:00",
    "Result": "Lost",
    "ClicksMade": 80,
    "GameTime": 120.09999999999998
  }
]